module gitlab.com/jarv/cmdchallenge

go 1.14

require (
	github.com/containerd/containerd v1.5.3 // indirect
	github.com/didip/tollbooth v4.0.2+incompatible
	github.com/docker/docker v20.10.7+incompatible
	github.com/docker/go-connections v0.4.0 // indirect
	github.com/google/shlex v0.0.0-20191202100458-e7afc7fbc510
	github.com/gorilla/handlers v0.0.0-20150720190736-60c7bfde3e33
	github.com/gorilla/mux v1.7.2
	github.com/mattn/go-sqlite3 v1.14.8
	github.com/mgutz/ansi v0.0.0-20200706080929-d51e80ef957d // indirect
	github.com/morikuni/aec v1.0.0 // indirect
	github.com/patrickmn/go-cache v2.1.0+incompatible // indirect
	github.com/prometheus/client_golang v1.11.0
	github.com/sirupsen/logrus v1.8.1
	github.com/stretchr/testify v1.6.1
	github.com/x-cray/logrus-prefixed-formatter v0.5.2
	golang.org/x/sys v0.0.0-20210917161153-d61c044b1678 // indirect
	google.golang.org/grpc v1.39.0 // indirect
	k8s.io/client-go v1.5.2
)
